<?xml version="1.0" encoding="utf-8"?>
<!-- Generator: Adobe Illustrator 18.1.0, SVG Export Plug-In . SVG Version: 6.00 Build 0)  -->
<svg version="1.2" baseProfile="tiny" id="Layer_1" xmlns="http://www.w3.org/2000/svg" xmlns:xlink="http://www.w3.org/1999/xlink"
	 x="0px" y="0px" viewBox="240.7 512.5 611.8 291.1" xml:space="preserve">
<g>
	<path fill="#414042" d="M476.7,571.4c24.2-17.1,48.8-34.1,73-51.7c41.7,29.4,83.9,58.8,125.6,88.2l3.3,2.4c0.5,0,0.9-0.5,2.4-0.5
		c1.9-0.5,4.3-0.9,6.2-1.9c-0.5,0-0.9,0-1.4,0c0.5-0.5,0.9-0.5,1.4,0c-43.6-30.8-87.7-61.6-131.3-92.9c-0.9-0.5-7.6,1.9-8.5,2.4
		c-26.5,18.5-52.6,37-79.2,55.5c-14.7,10.4-29.9,20.9-44.6,31.3c-2.4,1.9-5.2,2.8-7.6,4.7l6.2,0.5L476.7,571.4z"/>
	<g>
		<g>
			<path fill="#414042" d="M252.4,715l13.3-2.4c1.4-0.9,1.9-4.3,1.9-13.3c0-26.5,0-31.8-0.9-34.6c-0.9-3.3-3.8-1.9-6.2-2.4
				c-1.4-0.5-12.3-0.5-15.6,0.9c-2.8,1.4-1.9,3.8-1.9,6.2c-3.3,0-2.4-5.7-0.5-9.5c1.4-2.8,3.8-3.3,8.1-4.3
				c4.3-0.5,32.2,1.9,43.1,0.5c8.1-0.9,0.9-3.8,2.8-5.2c1.9-1.4,4.3-3.3,5.7-1.9c2.4,3.3-0.9,6.2-3.8,8.5c-1.4,0.9-4.7,3.8-14.7,3.8
				c-0.9,0-7.1,0-7.6,1.4c0,0,0,17.5,0,45c0,5.7,16.6,0.5,13.7,5.7c0,0-10-0.5-19.9-0.5C258.1,715.5,252.4,720.2,252.4,715z"/>
		</g>
		<g>
			<path fill="#414042" d="M346.8,707.9c3.3,2.4-0.5,2.8-4.7,5.7c-1.4,0.9-5.7,4.7-7.1,2.8c-0.5-0.9-0.5-8.1-0.5-10
				c0-7.6,0.5-20.4-9.5-21.3c-0.9,0-7.1,2.4-7.6,3.3c-0.5,0.9,0.5,21.3,0,25.6c0,0-4.7,2.4-8.1,3.3c-0.5-0.9,0.5-22.3,0.5-42.2
				c0-1.4,0.5-9.5-0.9-12.3c-1.4-3.3-7.6-4.7-4.7-5.2c4.3-0.5,11.4-3.8,12.8-1.9c0,0-0.5,29.4,0.5,29.4c0.9-0.5,8.5-9.5,19.4-1.4
				c4.7,3.8,4.3,23.2,4.3,26.1C341.5,712.2,344.9,709.3,346.8,707.9z"/>
		</g>
		<g>
			<path fill="#414042" d="M368.1,681.8c6.2,0,7.6,4.7,9.5,4.7c0.5,0,2.4-0.9,3.3-0.9c0.5,0,0.9,0.5,0.9,0.9c0,0.5-3.8,2.4-4.3,2.8
				c-5.7,2.8-18.5,8.5-18.5,11.4c0,6.2,4.3,12.3,11.4,12.3c4.3,0,7.1-4.7,9-4.7c0.5,0,0.9,0.9,0.9,0.9s-2.8,3.3-4.7,4.7
				c0,0-7.1,3.3-10.9,3.3c-6.2,0-14.7-5.7-13.7-18.5C352.5,685.1,359.6,681.8,368.1,681.8z M359.1,696c0.9,0,10.9-4.7,10.9-5.7
				c0-0.9-4.3-5.2-4.7-5.2C360.5,685.1,359.1,696,359.1,696z"/>
		</g>
		<g>
			<path fill="#414042" d="M443.9,654.8c8.1,0,14.7,8.5,18.5,8.5c1.9,0,4.7-1.9,5.7-1.9c0.5,0,0.9,0.5,0.9,1.9l-14.7,7.1
				c-3.3-1.4-8.5-10.9-19.4-10.9c-4.7,0-9,3.3-10.4,5.7c-3.3,4.7-5.7,7.1-5.7,13.3v5.7c0,11.4,10,25.1,23.2,25.6
				c11.4,0.9,19.9-3.3,19.9-3.3c0.9-0.9,1.9-0.9,1.4-4.7c-0.9-8.5-7.6-13.3-11.4-13.3l-13.3,4.7c-0.5-0.5-0.9-0.5-0.9-1.9
				c0.5,0,17.1-6.2,18.5-7.1c1.9-1.4,3.3-1.9,4.7-3.3c0,0,2.8-2.4,3.3-2.4c0.5,0,1.9,0.9,1.9,1.4c0,0.9-3.8,1.9-3.8,3.8
				c0,1.4,7.1,5.2,7.1,13.7c0,7.1-1.9,7.6-1.9,8.5c-0.5,0.5-5.7,4.7-8.5,6.2c-8.1,3.8-11.9,5.2-21.3,5.2c-15.6,0-28-12.3-28-27v-8.1
				C411.2,672.8,418.8,654.8,443.9,654.8z"/>
		</g>
		<g>
			<path fill="#414042" d="M487.1,711.2c4.3-2.4,4.7-2.8,5.7-2.8c2.4,0.5-0.5,2.8-2.4,3.8c-4.3,2.8-10.9,4.3-10.9,4.3
				c-0.5-0.5,0-49.3,0-49.3c0.5-3.3-5.7-7.1-5.2-7.6c1.9-0.9,12.8-5.2,13.3-4.3C488,659.5,487.1,689.4,487.1,711.2z"/>
		</g>
		<g>
			<path fill="#414042" d="M497,681.8c13.7,3.3,13.3,19,18.5,24.7c3.3-3.3,6.2-13.3,6.2-23.2c0-0.9,4.7-4.7,4.7,0.5
				c-0.5,12.3-8.1,26.1-21.3,51.7l4.7,4.3c0,0.9-4.3,4.3-4.7,4.3c0,0-5.7-2.4-6.2-4.7l12.3-23.7c-0.5-2.8-8.1-20.4-10.9-23.7
				c-5.7-7.1-9.5-4.7-9.5-7.1C490.9,685.6,494.7,680.9,497,681.8z"/>
		</g>
		<g>
			<path fill="#414042" d="M554.4,682.3c5.7-0.9,10.9,3.3,10.9,15.2c0,4.7-1.9,12.8-1.4,13.7c0.9,1.9,7.1-6.2,7.6-2.8
				c0,0-9.5,7.1-12.3,8.1c-2.8,0.9-1.4-2.4-0.9-4.7c0.5-13.7-0.9-29.9-10.9-24.2c-3.8,1.9-3.8,1.9-3.8,8.5c0,3.3,1.9,20.4-7.6,21.3
				c-0.5-5.2,0.9-24.7-1.9-28.4c-2.4-2.8-3.8-2.4-3.8-3.8c0,0,4.7-3.3,6.2-3.3c2.8,0.5,4.7,4.7,6.2,5.2
				C542.5,688,550.6,682.8,554.4,682.3z"/>
		</g>
		<g>
			<path fill="#414042" d="M632.6,711.7c2.8-0.5,5.2-4.3,7.1-2.4c0.9,0.9-1.9,2.8-6.2,4.7c-0.5,0.5-6.6,3.8-7.6,3.3
				c-0.9-0.5-0.5-2.8,0.5-9c0.9-4.3-0.5-21.8-6.2-21.3c-3.8,0.5-9.5,4.3-9.5,7.6c0,18,0.5,19-0.5,20.9c0,0-4.7,2.4-7.6,2.8
				c0-12.3,0.5-19.4-0.5-21.8c0,0-0.9-10.9-6.6-9.5c-8.1,1.9-9,8.1-9,8.1s0.5,18-0.5,19.9c0,0.5-5.7,3.8-7.6,3.8
				c-0.5-0.9-0.5-1.9-0.5-8.1c0-16.1,0.5-19-6.6-23.7c0.5-0.5,5.7-4.3,7.1-4.3c2.8,0.5,6.6,4.3,7.6,4.7s10-6.2,14.7-6.2
				s5.7,5.2,9.5,5.7c0.9,0.5,13.3-10.4,19-3.8C638.8,695.1,631.2,709.3,632.6,711.7z"/>
		</g>
		<g>
			<path fill="#414042" d="M653.9,678c2.8-0.5,1.9,3.3,1.9,5.7c0,9,0,17.5,0,26.5c2.4,0,5.2-3.3,6.2-2.4c1.9,1.4-1.9,3.3-3.3,3.8
				c-3.3,1.9-4.7,3.3-8.5,5.2c0,0-1.9,1.9-2.8,0.5c-0.5-0.5-0.5-9.5-0.5-19c0-3.3,0.5-8.5-0.9-10.9c-2.4-3.8-7.1-2.8-5.7-5.7
				C640.2,680.9,651.1,678,653.9,678z M657.7,660c7.1-0.5-1.4,10.4-7.1,10.9c-2.8-1.4-0.9-1.9,0-4.3
				C653.5,660.5,652.1,660.5,657.7,660z"/>
		</g>
		<g>
			<path fill="#414042" d="M677.2,711.2c4.3-2.4,4.7-2.8,5.7-2.8c2.4,0.5-0.5,2.8-2.4,3.8c-4.3,2.8-10.9,4.3-10.9,4.3
				c-0.5-0.5,0-49.3,0-49.3c0.5-3.3-5.7-7.1-5.2-7.6c1.9-0.9,12.8-5.2,13.3-4.3C677.2,659.5,677.2,689.4,677.2,711.2z"/>
		</g>
		<g>
			<path fill="#414042" d="M697.6,711.2c4.3-2.4,4.7-2.8,5.7-2.8c2.4,0.5-0.5,2.8-2.4,3.8c-4.3,2.8-10.9,4.3-10.9,4.3
				c-0.5-0.5,0-49.3,0-49.3c0.5-3.3-5.7-7.1-5.2-7.6c1.9-0.9,12.8-5.2,13.3-4.3C698,659.5,697.6,689.4,697.6,711.2z"/>
		</g>
		<g>
			<path fill="#414042" d="M755.4,651.9c1.9-0.5-0.5,4.7,2.4,4.7c0.5,0,3.3-0.5,4.3-0.5h1.9c0,0.5,0,0.9,0,1.4
				c0,3.3-7.1-0.5-7.1,3.3v50.2c0,3.8,9.5,1.4,9.5,4.3c0,0.5-0.5,0.9-0.9,0.9c0,0-7.1-1.4-9.5-1.4h-5.2l-20.4,1.9
				c-0.5,0-0.9,0-1.4,0V715c11.4-0.9,14.7-0.9,14.7-9.5v-33.2l-0.9-8.5c-0.5-2.8-1.9-3.8-1.9-3.8c-1.9-0.9-14.7-0.5-14.7-2.4
				c0-0.5,0.9-1.9,1.9-1.9c0,0,7.6,0.9,13.7,1.9C760.1,658.6,751.1,652.9,755.4,651.9z M750.2,662.4v49.3c0,0.5,1.9,1.4,3.3,0.9V660
				C753.5,659.5,750.2,661.4,750.2,662.4z"/>
		</g>
		<g>
			<path fill="#414042" d="M791.9,682.3c5.7-0.9,10.9,3.3,10.9,15.2c0,4.7-1.9,12.8-1.4,13.7c0.9,1.9,7.1-6.2,8.1-2.8
				c0,0-9.5,7.1-12.3,8.1c-2.8,0.9-1.4-2.4-0.9-4.7c0.5-13.7-0.9-29.9-10.9-24.2c-3.8,1.9-3.8,1.9-3.8,8.5c0,3.3,1.9,20.4-7.6,21.3
				c-0.5-5.2,0.9-24.7-1.9-28.4c-2.4-2.8-3.8-2.4-3.8-3.8c0,0,4.7-3.3,6.2-3.3c2.8,0.5,4.7,4.7,6.2,5.2
				C780.5,688,788.1,682.8,791.9,682.3z"/>
		</g>
		<g>
			<path fill="#414042" d="M835,682.3c5.7-0.9,10.9,3.3,10.9,15.2c0,4.7-1.9,12.8-1.4,13.7c0.9,1.9,7.1-6.2,8.1-2.8
				c0,0-9.5,7.1-12.3,8.1c-2.8,0.9-1.4-2.4-0.9-4.7c0.5-13.7-0.9-29.9-10.9-24.2c-3.8,1.9-3.8,1.9-3.8,8.5c0,3.3,1.9,20.4-7.6,21.3
				c-0.5-5.2,0.9-24.7-1.9-28.4c-2.4-2.8-3.8-2.4-3.8-3.8c0,0,4.7-3.3,6.2-3.3c2.8,0.5,4.7,4.7,6.2,5.2
				C823.7,688,831.2,682.8,835,682.3z"/>
		</g>
	</g>
	<g>
		<g>
			<path fill="#414042" d="M461.5,792.7v0.9h-35.1v-0.9H461.5z"/>
		</g>
		<g>
			<path fill="#414042" d="M491.8,779.9h-10.9v9.5h10.9v1.4h-10.9v9.5h11.4v1.4H479V778h13.3v1.9H491.8z"/>
		</g>
		<g>
			<path fill="#414042" d="M509.8,781.4c-2.8-1.4-3.8-1.9-5.2-1.9c-2.8,0-4.7,1.9-4.7,4.7c0,1.4,0.9,2.8,2.4,3.8
				c0.9,0.5,1.9,0.9,2.8,0.9c4.3,1.4,6.2,3.3,6.2,6.6c0,3.8-2.8,6.6-7.1,6.6c-1.9,0-4.3-0.9-6.2-1.9v-1.9c1.9,0.9,2.4,1.4,3.3,1.9
				c0.9,0.5,1.9,0.5,2.4,0.5c2.8,0,5.2-1.9,5.2-4.7c0-1.4-0.9-2.8-1.9-3.8c-0.9-0.5-1.9-0.9-2.8-0.9c-3.3-0.9-4.3-1.9-5.7-3.3
				c-0.5-0.9-0.9-1.9-0.9-3.3c0-3.3,2.8-6.2,6.6-6.2c1.9,0,3.8,0.5,5.7,1.4V781.4L509.8,781.4z"/>
		</g>
		<g>
			<path fill="#414042" d="M535,779.9h-8.5v22.3h-1.9v-22.3h-9v-1.4h19.9L535,779.9L535,779.9z"/>
		</g>
		<g>
			<path fill="#414042" d="M540.2,801.7h-2.4v-3.3h2.4V801.7z"/>
		</g>
		<g>
			<path fill="#414042" d="M566.2,801.7h-1.9V778h1.9V801.7z"/>
		</g>
		<g>
			<path fill="#414042" d="M578.1,800.8l0.9-0.5c3.3-2.4,4.7-3.8,6.2-6.2c1.4-1.9,1.9-2.8,1.9-4.7c-1.9,0.9-3.3,1.9-5.2,1.9
				c-3.8,0-6.6-2.8-6.6-6.2c0-3.8,2.8-6.6,6.6-6.6c4.3,0,7.1,3.3,7.1,8.5c0,4.7-1.9,9-6.2,13.3c-0.9,0.9-1.9,1.4-3.8,3.3
				L578.1,800.8z M587.6,785.6c0-3.8-1.9-6.2-5.7-6.2c-2.8,0-4.7,1.9-4.7,4.7c0,2.8,1.9,4.7,4.7,4.7c1.9,0,3.8-0.5,5.7-2.4
				C587.6,786.6,587.6,786.1,587.6,785.6z"/>
		</g>
		<g>
			<path fill="#414042" d="M595.2,779.9c1.9-1.4,3.3-1.9,5.7-1.9c4.3,0,7.1,2.8,7.1,7.1c0,2.8-0.9,5.2-3.3,9
				c-0.9,1.4-1.9,2.8-3.3,4.3l-1.4,1.4l-0.5,0.5h10.9v1.9h-15.2c1.9-1.9,2.4-2.4,4.7-4.7c0.9-1.4,2.4-2.8,3.3-4.3
				c1.9-2.8,3.3-5.7,3.3-8.1c0-2.8-2.4-5.2-5.2-5.2c-1.9,0-3.3,0.5-5.7,2.4L595.2,779.9L595.2,779.9z"/>
		</g>
		<g>
			<path fill="#414042" d="M625.5,791.3h3.3v1.4h-3.3v9.5h-1.9v-9.5h-10.9v-0.5l11.9-14.2h0.5v13.3H625.5z M623.6,781.4L623.6,781.4
				l-8.5,10h8.5V781.4z"/>
		</g>
		<g>
			<path fill="#414042" d="M679.5,792.7v0.9h-35.1v-0.9H679.5z"/>
		</g>
	</g>
	<path fill="#414042" d="M694.2,609.8c-0.5,0-0.9,0-1.9,0C693.3,609.3,693.8,609.3,694.2,609.8c-46-32.2-91.5-64.5-137.5-97.2
		c-0.9-0.5-8.1,1.9-9,2.4c-27.5,19.4-55,38.9-82.5,58.3c-15.6,10.9-30.8,21.8-46.5,33.2c-2.4,1.9-5.7,3.8-8.1,5.7
		c3.3-2.4,17.5,0,22.3,0c2.8,0,6.2-2.4,9-2.4c-7.6,0-14.7,0-22.3,0c1.9,0,6.6-4.7,8.1-5.7c15.6-10.9,30.8-21.8,46.5-33.2
		c25.6-18,51.2-36,76.3-54c43.6,30.8,87.7,61.6,130.8,92.9c-3.3,0-6.6,0-10,0c-2.8,0-6.2,2.4-9,2.4c7.6,0,14.7,0,22.3,0
		c0.5,0,1.4-0.5,2.4-0.5C690,610.7,692.3,610.2,694.2,609.8z"/>
</g>
</svg>
