<?xml version="1.0" encoding="utf-8"?>
<!-- Generator: Adobe Illustrator 18.1.0, SVG Export Plug-In . SVG Version: 6.00 Build 0)  -->
<svg version="1.2" baseProfile="tiny" id="Layer_1" xmlns="http://www.w3.org/2000/svg" xmlns:xlink="http://www.w3.org/1999/xlink"
	 x="0px" y="0px" viewBox="0 0 203.9 100.1" xml:space="preserve">
<g>
	<g>
		<g>
			<path fill="#D1D3D4" d="M9,69.9c0,2.3,0,4.2,0.1,5.2c0.1,0.7,0.2,1.2,0.9,1.3c0.3,0,0.9,0.1,1.1,0.1c0.1,0,0.2,0.1,0.2,0.1
				c0,0.1-0.1,0.2-0.4,0.2c-1.3,0-2.8-0.1-3-0.1s-1.6,0.1-2.4,0.1c-0.3,0-0.4,0-0.4-0.2c0-0.1,0-0.1,0.2-0.1c0.2,0,0.5,0,0.7-0.1
				c0.5-0.1,0.6-0.6,0.7-1.3C7,74.1,7,72.2,7,69.9V59.8c-1.2,0-2.4,0-3.6,0C2,59.9,1.4,60,1,60.6c-0.3,0.4-0.3,0.6-0.4,0.7
				c-0.1,0.2-0.1,0.2-0.2,0.2c-0.1,0-0.1-0.1-0.1-0.2c0-0.2,0.5-2.3,0.5-2.5c0-0.1,0.1-0.5,0.2-0.5c0.2,0,0.4,0.2,1.1,0.3
				c0.7,0.1,1.6,0.1,1.9,0.1h9c0.8,0,1.3,0,1.7-0.1c0.4,0,0.6-0.1,0.7-0.1c0.1,0,0.1,0.1,0.1,0.3c0,0.7-0.1,2.4-0.1,2.6
				c0,0.2-0.1,0.3-0.2,0.3c-0.1,0-0.2-0.1-0.2-0.4c0-0.1,0-0.2,0-0.3c-0.1-0.7-0.6-1.3-3-1.3c-1,0-2,0-3,0V69.9z"/>
			<path fill="#D1D3D4" d="M11,77.1c-1,0-2.1,0-2.7-0.1c-0.2,0-0.3,0-0.3,0c0,0-0.2,0-0.4,0c-0.5,0-1.4,0.1-2,0.1
				C5.3,77.1,5,77,5,76.7c0-0.2,0.1-0.4,0.4-0.4c0.2,0,0.4,0,0.7-0.1c0.3-0.1,0.4-0.4,0.5-1.1c0.1-1,0.1-2.9,0.1-5.2V60
				c-0.5,0-1,0-1.5,0c-0.6,0-1.2,0-1.8,0c-1.6,0-2,0.2-2.2,0.7c-0.2,0.4-0.3,0.5-0.4,0.7c0,0.1-0.1,0.4-0.5,0.4
				c-0.2,0-0.4-0.1-0.4-0.5c0-0.3,0.5-2.5,0.5-2.6c0.1-0.3,0.2-0.6,0.5-0.6c0.1,0,0.2,0,0.3,0.1c0.2,0.1,0.4,0.2,0.7,0.2
				c0.7,0.1,1.6,0.1,1.9,0.1h9c0.7,0,1.2,0,1.7-0.1c0.2,0,0.3-0.1,0.5-0.1c0.1,0,0.2,0,0.3,0c0.4,0,0.4,0.4,0.4,0.5
				c0,0.5,0,1.3,0,1.9c0,0.4,0,0.7,0,0.8c0,0.4-0.2,0.6-0.4,0.6c-0.4,0-0.4-0.4-0.4-0.6c0-0.1,0-0.1,0-0.1c0-0.1,0-0.1,0-0.2
				c0-0.3-0.1-1-2.7-1.1c-0.5,0-1,0-1.5,0c-0.4,0-0.8,0-1.3,0v9.9c0,2.2,0,4.2,0.1,5.2c0.1,0.8,0.2,1,0.7,1.1c0.3,0,0.8,0.1,1,0.1
				c0.3,0,0.4,0.2,0.4,0.4C11.6,76.8,11.6,77.1,11,77.1z M7.3,59.5v10.4c0,2.4,0,4.2-0.1,5.2c-0.1,0.5-0.2,1.2-0.7,1.5
				c0.4,0,0.8,0,1.1,0c0.2,0,0.4,0,0.4,0c0,0,0.1,0,0.3,0c0.3,0,0.8,0,1.4,0c-0.6-0.2-0.8-0.9-0.8-1.5c-0.1-1-0.1-2.9-0.1-5.2V59.5
				l0.3,0c0.5,0,1,0,1.5,0c0.5,0,1,0,1.5,0c1.8,0,2.8,0.4,3.1,1.2c0-0.6,0-1.4,0-1.9c0,0,0,0,0,0c0,0,0,0,0,0
				c-0.1,0-0.3,0.1-0.5,0.1c-0.4,0.1-1,0.1-1.7,0.1H4c-0.3,0-1.2,0-1.9-0.1c-0.5,0-0.7-0.2-0.9-0.2c0,0,0,0,0,0
				c0,0.1-0.1,0.2-0.1,0.2c-0.1,0.2-0.3,1.2-0.4,1.9c0.1-0.1,0.1-0.2,0.2-0.3c0.5-0.7,1.2-0.9,2.7-0.9c0.6,0,1.2,0,1.8,0
				c0.6,0,1.2,0,1.8,0L7.3,59.5z"/>
		</g>
		<g>
			<path fill="#D1D3D4" d="M32.8,66.4c0.1,0,0.1,0,0.1-0.1v-0.5c0-3.7,0-4.4,0-5.2c0-0.8-0.2-1.2-1-1.4c-0.2,0-0.6-0.1-0.8-0.1
				c-0.1,0-0.2,0-0.2-0.1c0-0.1,0.1-0.2,0.4-0.2c1.1,0,2.6,0.1,2.7,0.1s1.6-0.1,2.4-0.1c0.3,0,0.4,0,0.4,0.2c0,0.1-0.1,0.1-0.2,0.1
				c-0.2,0-0.3,0-0.6,0.1c-0.6,0.1-0.8,0.5-0.9,1.4c0,0.8,0,1.4,0,5.2v4.2c0,2.3,0,4.2,0.1,5.2c0.1,0.7,0.2,1.2,0.9,1.3
				c0.3,0,0.9,0.1,1.1,0.1c0.1,0,0.2,0.1,0.2,0.1c0,0.1-0.1,0.2-0.4,0.2c-1.3,0-2.8-0.1-3-0.1s-1.6,0.1-2.4,0.1
				c-0.3,0-0.4,0-0.4-0.2c0-0.1,0-0.1,0.2-0.1c0.2,0,0.5,0,0.7-0.1c0.5-0.1,0.6-0.6,0.7-1.3c0.1-1,0.1-2.9,0.1-5.2v-2.5
				c0-0.1-0.1-0.1-0.1-0.1H22.6c-0.1,0-0.1,0-0.1,0.1v2.5c0,2.3,0,4.2,0.1,5.2c0.1,0.7,0.2,1.2,0.9,1.3c0.3,0,0.9,0.1,1.1,0.1
				c0.1,0,0.2,0.1,0.2,0.1c0,0.1-0.1,0.2-0.4,0.2c-1.3,0-2.8-0.1-3-0.1s-1.6,0.1-2.4,0.1c-0.3,0-0.4,0-0.4-0.2c0-0.1,0-0.1,0.2-0.1
				c0.2,0,0.5,0,0.7-0.1c0.5-0.1,0.6-0.6,0.7-1.3c0.1-1,0.1-2.9,0.1-5.2v-4.2c0-3.7,0-4.4,0-5.2c0-0.8-0.2-1.2-1-1.4
				c-0.2,0-0.6-0.1-0.8-0.1c-0.1,0-0.2,0-0.2-0.1c0-0.1,0.1-0.2,0.4-0.2c1.1,0,2.6,0.1,2.7,0.1s1.6-0.1,2.4-0.1c0.3,0,0.4,0,0.4,0.2
				c0,0.1-0.1,0.1-0.2,0.1c-0.2,0-0.3,0-0.6,0.1c-0.6,0.1-0.8,0.5-0.9,1.4c0,0.8,0,1.4,0,5.2v0.5c0,0.1,0.1,0.1,0.1,0.1H32.8z"/>
			<path fill="#D1D3D4" d="M36.9,77.1c-1,0-2.1,0-2.7-0.1c-0.2,0-0.3,0-0.3,0c0,0-0.2,0-0.4,0c-0.5,0-1.4,0.1-2,0.1
				c-0.4,0-0.6-0.1-0.6-0.4c0-0.2,0.1-0.4,0.4-0.4c0.2,0,0.4,0,0.7-0.1c0.3-0.1,0.4-0.4,0.5-1.1c0.1-1,0.1-2.9,0.1-5.2v-2.4h-10v2.4
				c0,2.2,0,4.2,0.1,5.2c0.1,0.8,0.2,1,0.7,1.1c0.3,0,0.8,0.1,1,0.1c0.3,0,0.4,0.2,0.4,0.4c0,0.1-0.1,0.4-0.6,0.4
				c-1,0-2.1,0-2.7-0.1c-0.2,0-0.3,0-0.3,0c0,0-0.2,0-0.4,0c-0.5,0-1.4,0.1-2,0.1c-0.4,0-0.6-0.1-0.6-0.4c0-0.2,0.1-0.4,0.4-0.4
				c0.2,0,0.4,0,0.7-0.1c0.3-0.1,0.4-0.4,0.5-1.1c0.1-1,0.1-2.9,0.1-5.2v-4.2c0-3.7,0-4.4,0-5.2c0-0.8-0.2-1-0.8-1.1
				c-0.2,0-0.5-0.1-0.8-0.1c-0.3,0-0.4-0.2-0.4-0.4c0-0.3,0.2-0.4,0.6-0.4c0.8,0,1.9,0,2.4,0.1c0.2,0,0.3,0,0.3,0c0,0,0.2,0,0.4,0
				c0.5,0,1.4-0.1,2-0.1c0.4,0,0.6,0.1,0.6,0.4c0,0.2-0.2,0.4-0.4,0.4c-0.1,0-0.3,0-0.6,0.1c-0.4,0.1-0.6,0.3-0.7,1.1
				c0,0.8,0,1.4,0,5.2v0.4h10v-0.4c0-3.7,0-4.4,0-5.2c0-0.8-0.2-1-0.8-1.1c-0.2,0-0.5-0.1-0.8-0.1c-0.3,0-0.4-0.2-0.4-0.4
				c0-0.3,0.2-0.4,0.6-0.4c0.8,0,1.9,0,2.4,0.1c0.2,0,0.3,0,0.3,0c0,0,0.2,0,0.4,0c0.5,0,1.4-0.1,2-0.1c0.4,0,0.6,0.1,0.6,0.4
				c0,0.2-0.2,0.4-0.4,0.4c-0.1,0-0.3,0-0.6,0.1c-0.4,0.1-0.6,0.3-0.7,1.1c0,0.8,0,1.4,0,5.2v4.2c0,2.2,0,4.2,0.1,5.2
				c0.1,0.8,0.2,1,0.7,1.1c0.3,0,0.8,0.1,1,0.1c0.3,0,0.4,0.2,0.4,0.4C37.5,76.8,37.5,77.1,36.9,77.1z M22.6,67h10.2
				c0.2,0,0.4,0.2,0.4,0.4v2.5c0,2.4,0,4.2-0.1,5.2c-0.1,0.5-0.2,1.2-0.7,1.5c0.4,0,0.8,0,1.1,0c0.2,0,0.4,0,0.4,0c0,0,0.1,0,0.3,0
				c0.3,0,0.8,0,1.4,0c-0.6-0.2-0.8-0.9-0.8-1.5c-0.1-1-0.1-2.9-0.1-5.2v-4.2c0-3.7,0-4.4,0-5.2c0-0.7,0.2-1.3,0.7-1.5
				c-0.4,0-0.8,0-1.1,0c-0.2,0-0.4,0-0.4,0c0,0-0.2,0-0.3,0c-0.3,0-0.8,0-1.3,0c0.7,0.3,0.8,0.8,0.9,1.5c0,0.8,0,1.5,0,5.2v0.5
				c0,0.2-0.2,0.4-0.4,0.4H22.6c-0.2,0-0.4-0.2-0.4-0.4v-0.5c0-3.7,0-4.4,0-5.2c0-0.7,0.2-1.3,0.7-1.5c-0.4,0-0.8,0-1.1,0
				c-0.2,0-0.4,0-0.4,0c0,0-0.2,0-0.3,0c-0.3,0-0.8,0-1.3,0c0.7,0.3,0.8,0.8,0.9,1.5c0,0.8,0,1.5,0,5.2v4.2c0,2.4,0,4.2-0.1,5.2
				c-0.1,0.5-0.2,1.2-0.7,1.5c0.4,0,0.8,0,1.1,0c0.2,0,0.4,0,0.4,0c0,0,0.1,0,0.3,0c0.3,0,0.8,0,1.4,0c-0.6-0.2-0.8-0.9-0.8-1.5
				c-0.1-1-0.1-2.9-0.1-5.2v-2.5C22.2,67.2,22.4,67,22.6,67z"/>
		</g>
		<g>
			<path fill="#D1D3D4" d="M42.6,65.7c0-3.7,0-4.4,0-5.2c0-0.8-0.2-1.2-1-1.4c-0.2,0-0.5,0-0.7-0.1c-0.2,0-0.3,0-0.3-0.1
				c0-0.1,0.1-0.2,0.4-0.2c0.6,0,1.2,0,2.7,0.1c0.2,0,4.9,0,5.5,0c0.5,0,1-0.1,1.1-0.1c0.1-0.1,0.2-0.1,0.3-0.1
				c0.1,0,0.1,0.1,0.1,0.2c0,0.2-0.1,0.5-0.2,1.1c0,0.4,0,0.8-0.1,1.4c0,0.2-0.1,0.4-0.2,0.4c-0.1,0-0.2-0.1-0.2-0.3
				c0-0.3,0-0.6-0.1-0.8c-0.2-0.6-0.7-0.8-1.7-0.9c-0.4,0-3-0.1-3.3-0.1c-0.1,0-0.1,0.1-0.1,0.2v6.6c0,0.2,0,0.2,0.1,0.2
				c0.3,0,3.3,0,3.8,0c0.6,0,1-0.1,1.2-0.4c0.1-0.1,0.2-0.2,0.3-0.2c0.1,0,0.1,0,0.1,0.2s-0.1,0.6-0.2,1.3c-0.1,0.7-0.1,1.3-0.1,1.6
				c0,0.2-0.1,0.4-0.2,0.4c-0.1,0-0.2-0.2-0.2-0.4c0-0.2,0-0.5-0.1-0.7c-0.1-0.4-0.4-0.7-1.2-0.8c-0.6-0.1-3-0.1-3.4-0.1
				c-0.1,0-0.2,0.1-0.2,0.2v2.1c0,0.8,0,3.6,0,4.1c0,1,0.2,1.5,0.8,1.8c0.4,0.2,1.1,0.2,2,0.2c0.7,0,1.5,0,2.2-0.2
				c0.8-0.2,1-0.7,1.2-1.8c0-0.3,0.1-0.4,0.2-0.4c0.1,0,0.1,0.2,0.1,0.4c0,0.2-0.2,1.8-0.3,2.3C50.7,77,50.5,77,49.5,77
				c-1.8,0-2.6,0-3.5-0.1c-1,0-2.1-0.1-3-0.1c-0.6,0-1.2,0.1-1.8,0.1c-0.3,0-0.4,0-0.4-0.2c0-0.1,0.1-0.1,0.3-0.1
				c0.2,0,0.4,0,0.6-0.1c0.5-0.1,0.8-0.5,0.9-2.3c0-0.9,0-2.2,0-4.3V65.7z"/>
			<path fill="#D1D3D4" d="M49.5,77.2c-1.3,0-2.1,0-2.8,0l-1.7,0c-0.7,0-1.4,0-2.1,0c-0.2,0-0.5,0-0.7,0c-0.3,0-0.7,0.1-1,0h0
				c-0.4,0-0.6-0.1-0.6-0.4c0-0.1,0.1-0.3,0.5-0.4l0.2,0c0.1,0,0.2,0,0.3,0c0.3-0.1,0.6-0.2,0.7-2c0-1,0-2.2,0-4.3v-4.2
				c0-3.7,0-4.4,0-5.2c0-0.8-0.2-1-0.8-1.1c-0.1,0-0.3,0-0.4,0c-0.1,0-0.2,0-0.3,0c-0.2,0-0.5-0.1-0.5-0.4c0-0.3,0.2-0.4,0.6-0.4
				c0.6,0,1.2,0,2.7,0.1c0.2,0,4.9,0,5.5,0c0.8,0,1-0.1,1-0.1c0.2-0.1,0.2-0.1,0.4-0.1c0.1,0,0.3,0,0.3,0.5c0,0.1,0,0.2-0.1,0.3
				c0,0.2-0.1,0.4-0.1,0.8l0,0.3c0,0.3,0,0.7-0.1,1.1c-0.1,0.6-0.3,0.6-0.4,0.6c-0.1,0-0.4,0-0.4-0.6c0-0.3,0-0.5-0.1-0.7
				c-0.1-0.4-0.4-0.6-1.5-0.7c-0.4,0-2.6-0.1-3.2-0.1v6.6c1.5,0,3.3,0,3.7,0c0.6,0,0.9-0.1,1-0.3c0.2-0.2,0.3-0.3,0.5-0.3
				c0.2,0,0.4,0.1,0.4,0.4c0,0.1,0,0.2,0,0.3c0,0.2-0.1,0.6-0.1,1c0,0.5-0.1,0.9-0.1,1.2c0,0.2,0,0.3,0,0.4c0,0.2-0.1,0.6-0.4,0.6
				c-0.2,0-0.4-0.1-0.4-0.6c0-0.2,0-0.4-0.1-0.6c0-0.2-0.1-0.5-1-0.6c-0.6-0.1-2.8-0.1-3.3-0.1l0,3.1c0,1.1,0,2.7,0,3
				c0,1,0.2,1.4,0.6,1.5c0.3,0.1,0.9,0.2,1.9,0.2c0.7,0,1.5,0,2.1-0.2c0.6-0.2,0.9-0.6,1-1.6c0-0.2,0.1-0.6,0.5-0.6
				c0.4,0,0.4,0.4,0.4,0.6c0,0.2-0.2,1.9-0.3,2.4C50.9,77.2,50.5,77.2,49.5,77.2z M43,76.6c0.6,0,1.4,0,2.1,0l1.7,0
				c0.7,0,1.5,0,2.8,0c0.9,0,0.9,0,1.1-0.4c0.1-0.3,0.1-0.8,0.2-1.3c-0.2,0.5-0.5,0.9-1.2,1.1c-0.7,0.2-1.5,0.2-2.2,0.2
				c-1.1,0-1.7-0.1-2.1-0.2c-0.8-0.3-0.9-1.1-0.9-2c0-0.4,0-1.9,0-3.1l0-3.2c0-0.2,0.2-0.4,0.4-0.4c0.4,0,2.8,0,3.5,0.1
				c0.8,0.1,1.3,0.4,1.4,0.9c0-0.2,0-0.5,0.1-0.8c0-0.5,0.1-0.8,0.1-1c-0.3,0.3-0.7,0.4-1.3,0.4c-0.5,0-3.1,0-3.8,0
				c-0.2,0-0.4-0.1-0.4-0.5v-6.6c0-0.5,0.3-0.5,0.4-0.5c0.2,0,2.9,0,3.3,0.1c0.9,0.1,1.7,0.3,1.9,1.1c0,0.1,0,0.1,0.1,0.2
				c0-0.2,0-0.4,0-0.6l0-0.3c0-0.4,0.1-0.7,0.2-0.9c0,0,0-0.1,0-0.1c-0.1,0-0.3,0.1-1.2,0.2c-0.5,0-5,0-5.5,0
				c-0.7,0-1.3-0.1-1.7-0.1c0.7,0.2,0.8,0.8,0.9,1.5c0,0.8,0,1.5,0,5.2v4.2c0,2.1,0,3.3,0,4.3c0,1.4-0.2,2.1-0.8,2.4
				c0.1,0,0.1,0,0.2,0C42.5,76.6,42.8,76.6,43,76.6z"/>
		</g>
		<g>
			<path fill="#D1D3D4" d="M66.2,69.8c-0.1,0-0.2,0.1-0.2,0.2l-1.4,4.2c-0.2,0.6-0.3,1.2-0.3,1.6c0,0.5,0.5,0.7,0.9,0.7
				c0.1,0,0.1,0,0.2,0c0.2,0,0.3,0,0.3,0.1c0,0.1-0.2,0.2-0.4,0.2c-0.6,0-1.5-0.1-1.8-0.1c-0.3,0-1.6,0.1-2.7,0.1
				c-0.3,0-0.5,0-0.5-0.2c0-0.1,0.1-0.1,0.3-0.1c0.2,0,0.4,0,0.6,0c1.1-0.1,1.6-1.1,2-2.3l5.4-14.9c0.3-0.8,0.4-0.9,0.5-0.9
				c0.1,0,0.2,0.1,0.5,0.9c0.4,0.9,4.1,10.8,5.6,14.5c0.9,2.1,1.6,2.5,2.1,2.7c0.4,0.1,0.7,0.1,0.9,0.1c0.1,0,0.3,0,0.3,0.1
				c0,0.1-0.2,0.2-0.5,0.2c-0.4,0-2.1,0-3.8,0c-0.5,0-0.7,0-0.7-0.2c0-0.1,0.1-0.1,0.2-0.2c0.1,0,0.3-0.3,0.1-0.6L71.5,70
				c0-0.1-0.1-0.1-0.2-0.1H66.2z M71,69c0.1,0,0.1-0.1,0.1-0.2l-2.3-6.5c-0.1-0.4-0.2-0.4-0.4,0l-2.1,6.5c0,0.1,0,0.2,0.1,0.2H71z"
				/>
			<path fill="#D1D3D4" d="M77.9,77.1c-1.4,0-2.7,0-3.8,0l-0.1,0c-0.5,0-0.8,0-0.8-0.4c0-0.1,0-0.3,0.4-0.4c0,0,0-0.1,0-0.3L71.3,70
				l-5.1,0l-1.4,4.3c-0.2,0.6-0.3,1.1-0.3,1.5c0,0.4,0.4,0.4,0.6,0.4h0.2c0.5,0,0.6,0.2,0.6,0.4c0,0.1,0,0.4-0.7,0.4
				c-0.3,0-0.8,0-1.2,0c-0.3,0-0.5,0-0.6,0c-0.1,0-0.3,0-0.5,0c-0.6,0-1.4,0.1-2.2,0.1c-0.2,0-0.7,0-0.7-0.4c0-0.1,0.1-0.4,0.6-0.4
				c0.2,0,0.4,0,0.5,0c0.9-0.1,1.4-0.9,1.8-2.1l5.4-14.9c0.3-0.8,0.4-1.1,0.8-1.1c0.3,0,0.5,0.3,0.8,1c0.1,0.3,0.5,1.2,1,2.6
				c1.3,3.5,3.6,9.3,4.6,11.9c0.9,2.2,1.6,2.4,1.9,2.5c0.4,0.1,0.8,0.1,0.9,0.1c0.5,0,0.5,0.3,0.5,0.4
				C78.7,76.9,78.5,77.1,77.9,77.1z M73.9,76.6c0,0,0.1,0,0.1,0l0.1,0c0.8,0,1.9,0,2.9,0c-0.6-0.2-1.3-0.7-2.2-2.8
				c-1.1-2.6-3.3-8.4-4.6-11.9c-0.5-1.3-0.9-2.3-1-2.6c-0.1-0.3-0.2-0.6-0.3-0.7c-0.1,0.2-0.2,0.6-0.3,0.7l-5.4,14.9
				c-0.3,1-0.8,1.9-1.7,2.3c0.4,0,0.8,0,1.1,0c0.3,0,0.5,0,0.6,0c0.1,0,0.3,0,0.6,0c0.1,0,0.3,0,0.4,0c-0.2-0.2-0.4-0.4-0.4-0.8
				c0-0.5,0.1-1.1,0.4-1.7l1.4-4.2c0.1-0.3,0.4-0.4,0.5-0.4h5.2c0.3,0,0.4,0.2,0.4,0.3l2.2,5.9c0.1,0.3,0.1,0.6,0,0.7
				C74,76.5,74,76.6,73.9,76.6z M71,69.2h-4.6c-0.1,0-0.2-0.1-0.3-0.1c0-0.1-0.1-0.2,0-0.4l2.1-6.5c0-0.1,0.1-0.4,0.4-0.4
				c0.3,0,0.4,0.3,0.4,0.4l2.3,6.5c0,0.1,0.1,0.2,0,0.4C71.2,69.1,71.2,69.2,71,69.2z M66.6,68.7h4.2l-2.2-6.2L66.6,68.7z"/>
		</g>
		<g>
			<path fill="#D1D3D4" d="M84.4,70c0,3.5,0.1,5.1,0.5,5.5c0.4,0.4,1,0.6,2.9,0.6c1.3,0,2.3,0,2.9-0.7c0.3-0.4,0.6-1,0.6-1.4
				c0-0.2,0.1-0.3,0.2-0.3c0.1,0,0.1,0.1,0.1,0.4s-0.2,1.7-0.4,2.4c-0.2,0.6-0.2,0.6-1.5,0.6c-2.1,0-4.1-0.1-6.4-0.1
				c-0.7,0-1.5,0.1-2.4,0.1c-0.3,0-0.4,0-0.4-0.2c0-0.1,0-0.1,0.2-0.1c0.2,0,0.5,0,0.7-0.1c0.5-0.1,0.6-0.6,0.7-1.3
				c0.1-1,0.1-2.9,0.1-5.2v-4.2c0-3.7,0-4.4,0-5.2c0-0.8-0.2-1.2-1-1.4c-0.2,0-0.6-0.1-0.8-0.1c-0.1,0-0.2,0-0.2-0.1
				c0-0.1,0.1-0.2,0.4-0.2c1.1,0,2.6,0.1,2.7,0.1s1.9-0.1,2.6-0.1c0.3,0,0.4,0,0.4,0.2c0,0.1-0.1,0.1-0.2,0.1c-0.2,0-0.5,0-0.8,0.1
				c-0.7,0.1-0.9,0.5-0.9,1.4c0,0.8,0,1.4,0,5.2V70z"/>
			<path fill="#D1D3D4" d="M89.9,77.2c-1,0-2,0-3-0.1c-1.4,0-2.9-0.1-4.5,0c-0.4,0-0.8,0-1.3,0c-0.4,0-0.6-0.1-0.6-0.4
				c0-0.2,0.1-0.4,0.4-0.4c0.2,0,0.4,0,0.7-0.1c0.3-0.1,0.4-0.4,0.5-1.1c0.1-1,0.1-2.9,0.1-5.2v-4.2c0-3.7,0-4.4,0-5.2
				c0-0.8-0.2-1-0.8-1.1c-0.2,0-0.5-0.1-0.8-0.1c-0.3,0-0.4-0.2-0.4-0.4c0-0.3,0.2-0.4,0.6-0.4c0.8,0,1.9,0,2.4,0.1
				c0.2,0,0.3,0,0.3,0c0,0,0.2,0,0.4,0c0.6,0,1.6-0.1,2.2-0.1c0.4,0,0.6,0.1,0.6,0.4c0,0.2-0.2,0.4-0.4,0.4c-0.2,0-0.5,0-0.8,0.1
				c-0.5,0.1-0.7,0.3-0.7,1.1c0,0.8,0,1.4,0,5.2V70c0,3.1,0.1,4.9,0.5,5.3c0.3,0.3,0.8,0.5,2.7,0.5c1.3,0,2.2,0,2.7-0.6
				c0.3-0.3,0.5-0.9,0.6-1.3c0-0.3,0.2-0.5,0.5-0.5c0.4,0,0.4,0.4,0.4,0.6c0,0.3-0.2,1.7-0.4,2.5C91.4,77.1,91.2,77.2,89.9,77.2z
				 M83.4,76.6c1.2,0,2.3,0,3.4,0.1c1,0,2,0.1,3,0.1c1.1,0,1.1,0,1.3-0.5c0.1-0.4,0.2-1.1,0.3-1.6c-0.1,0.3-0.3,0.6-0.5,0.8
				c-0.7,0.8-1.9,0.8-3.1,0.8c-1.8,0-2.6-0.2-3.1-0.6c-0.5-0.5-0.6-1.7-0.6-5.7v-4.3c0-3.7,0-4.4,0-5.2c0-0.7,0.2-1.2,0.8-1.5
				c-0.4,0-0.8,0-1.1,0c-0.2,0-0.4,0-0.5,0c0,0-0.2,0-0.3,0c-0.3,0-0.8,0-1.3,0c0.7,0.3,0.8,0.8,0.9,1.5c0,0.8,0,1.5,0,5.2v4.2
				c0,2.4,0,4.2-0.1,5.2c-0.1,0.5-0.2,1.2-0.7,1.5c0.2,0,0.3,0,0.5,0C82.7,76.6,83.1,76.6,83.4,76.6z"/>
		</g>
		<g>
			<path fill="#D1D3D4" d="M96.2,65.7c0-3.7,0-4.4,0-5.2c0-0.8-0.2-1.2-1-1.4c-0.2,0-0.6-0.1-0.7-0.1c-0.2,0-0.3,0-0.3-0.1
				c0-0.1,0.1-0.2,0.4-0.2c1.1,0,2.6,0.1,2.7,0.1c0.6,0,1.5-0.1,2.6-0.1c3.9,0,4.8,2.4,4.8,3.6c0,2-1.1,3.1-2.3,4.3
				c1.8,0.6,4.2,2.3,4.2,5.1c0,2.6-2,5.2-6.1,5.2c-0.3,0-1,0-1.7-0.1c-0.7,0-1.4-0.1-1.5-0.1c-0.8,0-1.5,0.1-2.4,0.1
				c-0.3,0-0.4,0-0.4-0.2c0-0.1,0-0.2,0.4-0.2c0.2,0,0.4,0,0.6-0.1c0.5-0.1,0.6-0.6,0.7-1.3c0.1-1,0.1-2.9,0.1-5.2V65.7z M98.2,66.2
				c0,0.2,0,0.2,0.2,0.3c0.1,0,0.6,0.1,1.5,0.1c1.3,0,1.7,0,2.2-0.6c0.5-0.6,0.9-1.4,0.9-2.4c0-2-0.9-4.1-3.2-4.1
				c-0.3,0-0.8,0-1.2,0.1c-0.2,0-0.3,0.1-0.3,0.3V66.2z M98.2,68.8c0,1.8,0,4.8,0,5.2c0.1,1.2,0.1,1.5,0.8,1.9
				c0.6,0.3,1.7,0.4,2.1,0.4c1.3,0,3.4-0.7,3.4-3.4c0-1.4-0.5-3.5-2.3-4.8c-0.8-0.6-1.4-0.6-2-0.7c-0.3,0-1.5,0-1.9,0
				c-0.1,0-0.1,0-0.1,0.2V68.8z"/>
			<path fill="#D1D3D4" d="M100.4,77.2c-0.1,0-0.4,0-0.8,0c-0.3,0-0.6,0-0.9,0c-0.7,0-1.4-0.1-1.5-0.1c-0.4,0-0.7,0-1.1,0
				c-0.4,0-0.8,0-1.2,0c-0.4,0-0.6-0.1-0.6-0.4c0-0.1,0.1-0.4,0.6-0.4c0.2,0,0.3,0,0.5-0.1c0.3-0.1,0.4-0.4,0.5-1.1
				c0.1-1,0.1-2.9,0.1-5.2v-4.2c0-3.7,0-4.4,0-5.2c0-0.8-0.2-1-0.8-1.1c-0.2,0-0.5-0.1-0.6-0.1c-0.5,0-0.6-0.3-0.6-0.4
				c0-0.3,0.2-0.4,0.6-0.4c0.8,0,1.9,0,2.4,0.1c0.2,0,0.3,0,0.3,0c0.2,0,0.5,0,0.9,0c0.5,0,1.1,0,1.7,0c4,0,5.1,2.4,5.1,3.9
				c0,1.9-1,3.1-2.1,4.2c1.6,0.6,4,2.3,4,5.2C106.8,74.5,104.6,77.2,100.4,77.2z M97.3,76.6c0.1,0,0.8,0,1.5,0.1c0.3,0,0.6,0,0.9,0
				c0.3,0,0.6,0,0.8,0c4,0,5.9-2.6,5.9-5c0-2.8-2.5-4.4-4-4.8l-0.4-0.1l0.3-0.3c1.1-1.2,2.2-2.3,2.2-4.1c0-1.2-1-3.4-4.6-3.4
				c-0.6,0-1.2,0-1.7,0c-0.4,0-0.7,0-0.9,0c0,0-0.2,0-0.3,0c-0.3,0-0.8,0-1.3,0c0.7,0.3,0.8,0.8,0.9,1.5c0,0.8,0,1.5,0,5.2v4.2
				c0,2.4,0,4.2-0.1,5.2c-0.1,0.6-0.2,1.2-0.6,1.5c0.1,0,0.2,0,0.3,0C96.5,76.6,96.9,76.6,97.3,76.6z M101.1,76.5
				c-0.3,0-1.5,0-2.2-0.4c-0.9-0.4-0.9-0.9-1-2l0-0.1c0-0.4,0-3.3,0-5.2v-1.4c0-0.3,0.2-0.4,0.4-0.4c1.1,0,1.7,0,1.9,0.1
				c0.6,0.1,1.2,0.2,2.1,0.7c2.2,1.5,2.4,4,2.4,5C104.8,75.7,102.5,76.5,101.1,76.5z M98.4,67.5l0,1.3c0,1.8,0,4.8,0,5.2l0,0.1
				c0.1,1.1,0.1,1.3,0.7,1.6c0.7,0.3,1.8,0.3,2,0.3c0.3,0,3.1-0.1,3.1-3.2c0-0.9-0.2-3.2-2.2-4.6c-0.8-0.5-1.3-0.6-1.9-0.7
				C100,67.5,99.6,67.5,98.4,67.5z M99.8,66.9c-0.9,0-1.4-0.1-1.5-0.1c-0.3-0.1-0.4-0.3-0.4-0.5v-6.4c0-0.4,0.4-0.5,0.5-0.5
				c0.5-0.1,1.1-0.1,1.2-0.1c2.6,0,3.5,2.4,3.5,4.4c0,1-0.3,1.9-0.9,2.6C101.6,66.8,101.1,66.9,99.8,66.9z M99.6,59.7
				c-0.3,0-0.8,0-1.1,0.1c-0.1,0-0.1,0-0.1,0l0,6.4c0.1,0,0.5,0.1,1.4,0.1c1.4,0,1.6-0.1,2-0.5c0.5-0.6,0.8-1.4,0.8-2.3
				C102.6,61.7,101.8,59.7,99.6,59.7z"/>
		</g>
		<g>
			<path fill="#D1D3D4" d="M113.4,69.8c-0.1,0-0.2,0.1-0.2,0.2l-1.4,4.2c-0.2,0.6-0.3,1.2-0.3,1.6c0,0.5,0.5,0.7,0.9,0.7
				c0.1,0,0.1,0,0.2,0c0.2,0,0.3,0,0.3,0.1c0,0.1-0.2,0.2-0.4,0.2c-0.6,0-1.5-0.1-1.8-0.1c-0.3,0-1.6,0.1-2.7,0.1
				c-0.3,0-0.5,0-0.5-0.2c0-0.1,0.1-0.1,0.3-0.1c0.2,0,0.4,0,0.6,0c1.1-0.1,1.6-1.1,2-2.3l5.4-14.9c0.3-0.8,0.4-0.9,0.5-0.9
				c0.1,0,0.2,0.1,0.5,0.9c0.4,0.9,4.1,10.8,5.6,14.5c0.9,2.1,1.6,2.5,2.1,2.7c0.4,0.1,0.7,0.1,0.9,0.1c0.1,0,0.3,0,0.3,0.1
				c0,0.1-0.2,0.2-0.5,0.2c-0.4,0-2.1,0-3.8,0c-0.5,0-0.7,0-0.7-0.2c0-0.1,0.1-0.1,0.2-0.2c0.1,0,0.3-0.3,0.1-0.6l-2.2-5.9
				c0-0.1-0.1-0.1-0.2-0.1H113.4z M118.3,69c0.1,0,0.1-0.1,0.1-0.2l-2.3-6.5c-0.1-0.4-0.2-0.4-0.4,0l-2.1,6.5c0,0.1,0,0.2,0.1,0.2
				H118.3z"/>
			<path fill="#D1D3D4" d="M125.2,77.1c-1.4,0-2.7,0-3.8,0l-0.1,0c-0.5,0-0.8,0-0.8-0.4c0-0.1,0-0.3,0.4-0.4c0,0,0-0.1,0-0.3
				l-2.2-5.9l-5.1,0l-1.4,4.3c-0.2,0.6-0.3,1.1-0.3,1.5c0,0.4,0.4,0.4,0.6,0.4h0.2c0.5,0,0.6,0.2,0.6,0.4c0,0.1,0,0.4-0.7,0.4
				c-0.3,0-0.8,0-1.2,0c-0.3,0-0.5,0-0.6,0c-0.1,0-0.3,0-0.5,0c-0.6,0-1.4,0.1-2.2,0.1c-0.2,0-0.7,0-0.7-0.4c0-0.1,0.1-0.4,0.6-0.4
				c0.2,0,0.4,0,0.5,0c0.9-0.1,1.4-0.9,1.8-2.1l5.4-14.9c0.3-0.8,0.4-1.1,0.8-1.1c0.3,0,0.5,0.3,0.8,1c0.1,0.3,0.5,1.2,1,2.6
				c1.3,3.5,3.6,9.3,4.6,11.9c0.9,2.2,1.6,2.4,1.9,2.5c0.4,0.1,0.8,0.1,0.9,0.1c0.5,0,0.5,0.3,0.5,0.4
				C125.9,76.9,125.8,77.1,125.2,77.1z M121.2,76.6c0,0,0.1,0,0.1,0l0.1,0c0.8,0,1.9,0,2.9,0c-0.6-0.2-1.3-0.7-2.2-2.8
				c-1.1-2.6-3.3-8.4-4.6-11.9c-0.5-1.3-0.9-2.3-1-2.6c-0.1-0.3-0.2-0.6-0.3-0.7c-0.1,0.2-0.2,0.6-0.3,0.7l-5.4,14.9
				c-0.3,1-0.8,1.9-1.7,2.3c0.4,0,0.8,0,1.1,0c0.3,0,0.5,0,0.6,0c0.1,0,0.3,0,0.6,0c0.1,0,0.3,0,0.4,0c-0.2-0.2-0.4-0.4-0.4-0.8
				c0-0.5,0.1-1.1,0.4-1.7l1.4-4.2c0.1-0.3,0.4-0.4,0.5-0.4h5.2c0.3,0,0.4,0.2,0.4,0.3l2.2,5.9c0.1,0.3,0.1,0.6,0,0.7
				C121.3,76.5,121.2,76.6,121.2,76.6z M118.3,69.2h-4.6c-0.1,0-0.2-0.1-0.3-0.1c0-0.1-0.1-0.2,0-0.4l2.1-6.5c0-0.1,0.1-0.4,0.4-0.4
				c0.3,0,0.4,0.3,0.4,0.4l2.3,6.5c0,0.1,0.1,0.2,0,0.4C118.5,69.1,118.4,69.2,118.3,69.2z M113.9,68.7h4.2l-2.2-6.2L113.9,68.7z"/>
		</g>
		<g>
			<path fill="#D1D3D4" d="M133.2,69.9c0,2.3,0,4.2,0.1,5.2c0.1,0.7,0.2,1.2,0.9,1.3c0.3,0,0.9,0.1,1.1,0.1c0.1,0,0.2,0.1,0.2,0.1
				c0,0.1-0.1,0.2-0.4,0.2c-1.3,0-2.8-0.1-3-0.1s-1.6,0.1-2.4,0.1c-0.3,0-0.4,0-0.4-0.2c0-0.1,0-0.1,0.2-0.1c0.2,0,0.5,0,0.7-0.1
				c0.5-0.1,0.6-0.6,0.7-1.3c0.1-1,0.1-2.9,0.1-5.2V59.8c-1.2,0-2.4,0-3.6,0c-1.5,0-2.1,0.2-2.4,0.8c-0.3,0.4-0.3,0.6-0.4,0.7
				c-0.1,0.2-0.1,0.2-0.2,0.2c-0.1,0-0.1-0.1-0.1-0.2c0-0.2,0.5-2.3,0.5-2.5c0-0.1,0.1-0.5,0.2-0.5c0.2,0,0.4,0.2,1.1,0.3
				c0.7,0.1,1.6,0.1,1.9,0.1h9c0.8,0,1.3,0,1.7-0.1c0.4,0,0.6-0.1,0.7-0.1c0.1,0,0.1,0.1,0.1,0.3c0,0.7-0.1,2.4-0.1,2.6
				c0,0.2-0.1,0.3-0.2,0.3c-0.1,0-0.2-0.1-0.2-0.4c0-0.1,0-0.2,0-0.3c-0.1-0.7-0.6-1.3-3-1.3c-1,0-2,0-3,0V69.9z"/>
			<path fill="#D1D3D4" d="M135.2,77.1c-1,0-2.1,0-2.7-0.1c-0.2,0-0.3,0-0.3,0c0,0-0.2,0-0.4,0c-0.5,0-1.4,0.1-2,0.1
				c-0.4,0-0.6-0.1-0.6-0.4c0-0.2,0.1-0.4,0.4-0.4c0.2,0,0.4,0,0.7-0.1c0.3-0.1,0.4-0.4,0.5-1.1c0.1-1,0.1-2.9,0.1-5.2V60
				c-0.5,0-1,0-1.5,0c-0.6,0-1.2,0-1.8,0c-1.6,0-2,0.2-2.2,0.7c-0.2,0.4-0.3,0.5-0.4,0.7c0,0.1-0.1,0.4-0.5,0.4
				c-0.2,0-0.4-0.1-0.4-0.5c0-0.3,0.5-2.5,0.5-2.6c0.1-0.3,0.2-0.6,0.5-0.6c0.1,0,0.2,0,0.3,0.1c0.2,0.1,0.4,0.2,0.7,0.2
				c0.7,0.1,1.6,0.1,1.9,0.1h9c0.7,0,1.2,0,1.7-0.1c0.2,0,0.3-0.1,0.5-0.1c0.1,0,0.2,0,0.3,0c0.4,0,0.4,0.4,0.4,0.5
				c0,0.5,0,1.3,0,1.9c0,0.4,0,0.7,0,0.8c0,0.4-0.2,0.6-0.4,0.6c-0.4,0-0.4-0.4-0.4-0.6c0-0.1,0-0.1,0-0.1c0-0.1,0-0.1,0-0.2
				c0-0.3-0.1-1-2.7-1.1c-0.5,0-1,0-1.5,0c-0.4,0-0.8,0-1.3,0v9.9c0,2.2,0,4.2,0.1,5.2c0.1,0.8,0.2,1,0.7,1.1c0.3,0,0.9,0.1,1,0.1
				c0.3,0,0.4,0.2,0.4,0.4C135.8,76.8,135.7,77.1,135.2,77.1z M131.4,59.5v10.4c0,2.4,0,4.2-0.1,5.2c-0.1,0.5-0.2,1.2-0.7,1.5
				c0.4,0,0.8,0,1.1,0c0.2,0,0.4,0,0.4,0c0,0,0.1,0,0.3,0c0.3,0,0.8,0,1.4,0c-0.6-0.2-0.8-0.9-0.8-1.5c-0.1-1-0.1-2.9-0.1-5.2V59.5
				l0.3,0c0.5,0,1,0,1.5,0c0.5,0,1,0,1.5,0c1.8,0,2.8,0.4,3.1,1.2c0-0.6,0-1.4,0-1.9c0,0,0,0,0,0c0,0,0,0,0,0
				c-0.1,0-0.3,0.1-0.5,0.1c-0.4,0.1-1,0.1-1.7,0.1h-9c-0.3,0-1.2,0-1.9-0.1c-0.5,0-0.7-0.2-0.9-0.2c0,0,0,0,0,0
				c0,0.1-0.1,0.2-0.1,0.2c-0.1,0.2-0.3,1.2-0.4,1.9c0.1-0.1,0.1-0.2,0.2-0.3c0.5-0.7,1.2-0.9,2.7-0.9c0.6,0,1.2,0,1.8,0
				c0.6,0,1.2,0,1.8,0L131.4,59.5z"/>
		</g>
		<g>
			<path fill="#D1D3D4" d="M144.6,65.7c0-3.7,0-4.4,0-5.2c0-0.8-0.2-1.2-1-1.4c-0.2,0-0.6-0.1-0.8-0.1c-0.1,0-0.2,0-0.2-0.1
				c0-0.1,0.1-0.2,0.4-0.2c1.1,0,2.6,0.1,2.7,0.1c0.3,0,2.1-0.1,2.8-0.1c1.5,0,3.1,0.1,4.4,1.1c0.6,0.4,1.7,1.6,1.7,3.3
				c0,1.8-0.7,3.6-2.9,5.5c2,2.5,3.6,4.7,5,6.1c1.3,1.4,2.3,1.6,2.9,1.7c0.5,0.1,0.8,0.1,0.9,0.1c0.1,0,0.2,0.1,0.2,0.1
				c0,0.1-0.1,0.2-0.6,0.2h-1.7c-1.3,0-1.9-0.1-2.6-0.5c-1-0.6-1.9-1.7-3.2-3.5c-1-1.3-2.1-2.9-2.6-3.6c-0.1-0.1-0.2-0.1-0.3-0.1
				l-3,0c-0.1,0-0.2,0.1-0.2,0.2v0.6c0,2.3,0,4.2,0.1,5.2c0.1,0.7,0.2,1.2,0.9,1.3c0.3,0,0.9,0.1,1.1,0.1c0.1,0,0.2,0.1,0.2,0.1
				c0,0.1-0.1,0.2-0.4,0.2c-1.3,0-2.8-0.1-3-0.1c0,0-1.5,0.1-2.3,0.1c-0.3,0-0.4,0-0.4-0.2c0-0.1,0-0.1,0.2-0.1c0.2,0,0.5,0,0.7-0.1
				c0.5-0.1,0.6-0.6,0.7-1.3c0.1-1,0.1-2.9,0.1-5.2V65.7z M146.5,67.8c0,0.1,0,0.2,0.2,0.3c0.4,0.2,1.5,0.4,2.5,0.4
				c0.6,0,1.2-0.1,1.8-0.5c0.8-0.6,1.5-1.9,1.5-3.7c0-3-1.6-4.8-4.2-4.8c-0.7,0-1.4,0.1-1.6,0.1c-0.1,0-0.2,0.1-0.2,0.3V67.8z"/>
			<path fill="#D1D3D4" d="M160.1,77.1h-1.7c-1.4,0-2-0.1-2.7-0.5c-1-0.5-1.8-1.6-3-3.2l-0.3-0.4c-0.6-0.8-1.2-1.6-1.7-2.3
				c-0.4-0.5-0.7-1-0.9-1.2c0,0-0.1,0-0.1,0l-2.9,0l0,0.5c0,2.2,0,4.2,0.1,5.2c0.1,0.8,0.2,1,0.7,1.1c0.3,0,0.8,0.1,1,0.1
				c0.3,0,0.4,0.2,0.4,0.4c0,0.1,0,0.4-0.6,0.4c-1,0-2.1,0-2.7-0.1c-0.2,0-0.3,0-0.3,0l-0.1,0c-0.4,0-1.5,0.1-2.2,0.1
				c-0.4,0-0.6-0.1-0.6-0.4c0-0.2,0.1-0.4,0.4-0.4c0.2,0,0.4,0,0.7-0.1c0.3-0.1,0.4-0.4,0.5-1.1c0.1-1,0.1-2.9,0.1-5.2v-4.2
				c0-3.7,0-4.4,0-5.2c0-0.8-0.2-1-0.8-1.1c-0.2,0-0.5-0.1-0.8-0.1c-0.3,0-0.4-0.2-0.4-0.4c0-0.3,0.2-0.4,0.6-0.4
				c0.8,0,1.9,0,2.4,0.1c0.2,0,0.3,0,0.3,0c0.1,0,0.4,0,0.8,0c0.7,0,1.6,0,2,0c1.5,0,3.2,0.1,4.5,1.1c0.7,0.5,1.8,1.7,1.8,3.5
				c0,2-0.9,3.7-2.8,5.6l0.6,0.7c1.6,2.1,3,3.9,4.3,5.2c1.2,1.3,2.2,1.6,2.8,1.7c0.4,0.1,0.8,0.1,0.9,0.1c0.3,0,0.5,0.2,0.5,0.4
				C160.9,77.1,160.4,77.1,160.1,77.1z M146.7,68.9l3,0c0.2,0,0.4,0.1,0.5,0.2c0.2,0.3,0.5,0.7,0.9,1.3c0.5,0.7,1.1,1.6,1.7,2.3
				l0.3,0.4c1.2,1.5,1.9,2.6,2.9,3.1c0.6,0.3,1.2,0.4,2.5,0.4h0.7c-0.7-0.2-1.6-0.6-2.6-1.7c-1.2-1.3-2.6-3.1-4.3-5.2l-0.9-1.1
				l0.2-0.2c1.9-1.8,2.8-3.5,2.8-5.4c0-1.5-1-2.6-1.6-3.1c-1.2-0.9-2.8-1-4.2-1c-0.5,0-1.4,0-2,0c-0.4,0-0.7,0-0.8,0
				c0,0-0.2,0-0.3,0c-0.3,0-0.8,0-1.3,0c0.7,0.3,0.8,0.8,0.9,1.5c0,0.8,0,1.5,0,5.2v4.2c0,2.4,0,4.2-0.1,5.2
				c-0.1,0.5-0.2,1.2-0.7,1.5c0.5,0,1.1,0,1.3-0.1l0.1,0c0,0,0.1,0,0.3,0c0.3,0,0.8,0,1.4,0c-0.6-0.2-0.8-0.9-0.8-1.5
				c-0.1-1-0.1-2.9-0.1-5.2v-0.6C146.3,69.1,146.4,68.9,146.7,68.9z M149.2,68.7c-1,0-2.2-0.1-2.6-0.4c-0.2-0.1-0.3-0.3-0.3-0.5V60
				c0-0.2,0.1-0.4,0.3-0.5c0.3-0.1,1-0.2,1.7-0.2c2.7,0,4.4,1.9,4.4,5.1c0,1.8-0.6,3.2-1.6,3.9C150.5,68.7,149.7,68.7,149.2,68.7z
				 M148.3,59.8c-0.8,0-1.4,0.1-1.5,0.1c0,0,0,0,0,0v7.8c0,0,0,0,0,0.1c0.3,0.2,1.3,0.3,2.4,0.3c0.5,0,1.1,0,1.7-0.4
				c0.9-0.6,1.4-1.9,1.4-3.5C152.2,61.5,150.8,59.8,148.3,59.8z"/>
		</g>
		<g>
			<path fill="#D1D3D4" d="M159.7,67.8c0-3.9,2.8-9.4,9.5-9.4c5.4,0,9.4,3.4,9.4,9c0,5.4-3.8,9.8-9.6,9.8
				C162.4,77.2,159.7,72.1,159.7,67.8z M176.3,68.1c0-5.8-3.5-8.9-7.3-8.9c-4,0-7,2.6-7,7.9c0,5.6,3.4,9.2,7.7,9.2
				C171.8,76.3,176.3,75.1,176.3,68.1z"/>
			<path fill="#D1D3D4" d="M169,77.5c-6.6,0-9.6-5-9.6-9.7c0-3.7,2.6-9.6,9.7-9.6c5.8,0,9.7,3.7,9.7,9.3
				C178.8,73.2,174.7,77.5,169,77.5z M169.1,58.7c-6.7,0-9.2,5.6-9.2,9.1c0,4.4,2.8,9.2,9.1,9.2c5.4,0,9.3-4,9.3-9.6
				C178.3,62.2,174.6,58.7,169.1,58.7z M169.6,76.6c-4.7,0-7.9-3.9-7.9-9.4c0-5,2.8-8.1,7.3-8.1c3.6,0,7.5,2.9,7.5,9.1
				C176.5,72,174.7,76.6,169.6,76.6z M169,59.5c-4.2,0-6.8,2.9-6.8,7.6c0,5.3,3.1,8.9,7.4,8.9c1.1,0,6.4-0.4,6.4-8
				C176,62.2,172.4,59.5,169,59.5z"/>
		</g>
		<g>
			<path fill="#D1D3D4" d="M182,76.6c-0.3-0.2-0.4-0.3-0.4-0.9c0-1.2,0.1-2.2,0.1-2.5c0-0.3,0.1-0.4,0.2-0.4c0.1,0,0.2,0.1,0.2,0.3
				c0,0.2,0,0.6,0.1,0.9c0.4,1.8,1.9,2.4,3.6,2.4c2.3,0,3.4-1.7,3.4-3.2c0-1.7-0.7-2.6-2.8-4.3l-1.1-0.9c-2.5-2.1-3.1-3.6-3.1-5.2
				c0-2.6,1.9-4.3,5-4.3c0.9,0,1.6,0.1,2.2,0.2c0.5,0.1,0.6,0.1,0.8,0.1c0.2,0,0.2,0,0.2,0.2c0,0.1-0.1,0.9-0.1,2.5
				c0,0.4,0,0.6-0.2,0.6c-0.1,0-0.2-0.1-0.2-0.3c0-0.3-0.2-0.9-0.3-1.2c-0.1-0.3-0.8-1.3-3-1.3c-1.7,0-3,1-3,2.8
				c0,1.4,0.6,2.2,2.9,4l0.7,0.5c2.8,2.2,3.5,3.7,3.5,5.6c0,1-0.4,2.8-2,4c-1,0.7-2.3,1-3.6,1C184.1,77.2,183,77.1,182,76.6z"/>
			<path fill="#D1D3D4" d="M185.2,77.5c-1.3,0-2.4-0.2-3.3-0.7c-0.5-0.2-0.5-0.5-0.5-1.1c0-1,0.1-1.8,0.1-2.3l0-0.3
				c0-0.2,0.1-0.6,0.4-0.6c0.4,0,0.4,0.4,0.4,0.5c0,0.2,0,0.5,0.1,0.8c0.4,2,2.5,2.3,3.3,2.3c2.1,0,3.2-1.5,3.2-2.9
				c0-1.5-0.6-2.4-2.7-4.1l-1.1-0.9c-2.7-2.2-3.2-3.7-3.2-5.4c0-2.7,2.1-4.6,5.2-4.6c0.9,0,1.6,0.1,2.3,0.2c0.5,0.1,0.6,0.1,0.8,0.1
				c0.4,0,0.5,0.3,0.5,0.4c0,0,0,0.1,0,0.2c0,0.3-0.1,1.1-0.1,2.4c0,0.3,0,0.8-0.4,0.8c-0.4,0-0.4-0.4-0.4-0.5
				c0-0.3-0.2-0.9-0.3-1.1c-0.2-0.3-0.8-1.1-2.8-1.1c-1.6,0-2.7,1-2.7,2.5c0,1.3,0.6,2.1,2.8,3.8l0.7,0.5c3,2.4,3.6,3.9,3.6,5.8
				c0,1.3-0.6,3.1-2.1,4.2C188,77.1,186.7,77.5,185.2,77.5z M181.9,74c0,0.5-0.1,1-0.1,1.7c0,0.6,0,0.6,0.2,0.7
				c0.9,0.4,1.9,0.6,3.1,0.6c1.4,0,2.6-0.3,3.5-1c1.8-1.3,1.9-3.4,1.9-3.8c0-1.7-0.6-3.2-3.4-5.4l-0.7-0.5c-2.4-1.9-3-2.8-3-4.2
				c0-1.8,1.3-3,3.2-3c2.2,0,3,1,3.2,1.4c0.1,0.1,0.1,0.4,0.2,0.6c0-1,0.1-1.6,0.1-1.9c0,0,0,0,0-0.1c-0.2,0-0.4,0-0.9-0.1
				c-0.7-0.2-1.4-0.2-2.2-0.2c-2.9,0-4.7,1.6-4.7,4.1c0,1.5,0.5,3,3,5l1.1,0.9c2,1.6,2.9,2.7,2.9,4.5c0,1.7-1.3,3.4-3.7,3.4
				C183.7,76.6,182.3,75.6,181.9,74z"/>
		</g>
		<g>
			<path fill="#D1D3D4" d="M194.8,76.6c-0.3-0.2-0.4-0.3-0.4-0.9c0-1.2,0.1-2.2,0.1-2.5c0-0.3,0.1-0.4,0.2-0.4
				c0.1,0,0.2,0.1,0.2,0.3c0,0.2,0,0.6,0.1,0.9c0.4,1.8,1.9,2.4,3.6,2.4c2.3,0,3.4-1.7,3.4-3.2c0-1.7-0.7-2.6-2.8-4.3l-1.1-0.9
				c-2.5-2.1-3.1-3.6-3.1-5.2c0-2.6,1.9-4.3,5-4.3c0.9,0,1.6,0.1,2.2,0.2c0.5,0.1,0.6,0.1,0.8,0.1c0.2,0,0.2,0,0.2,0.2
				c0,0.1-0.1,0.9-0.1,2.5c0,0.4,0,0.6-0.2,0.6c-0.1,0-0.2-0.1-0.2-0.3c0-0.3-0.2-0.9-0.3-1.2c-0.1-0.3-0.8-1.3-3-1.3
				c-1.7,0-3,1-3,2.8c0,1.4,0.6,2.2,2.9,4l0.7,0.5c2.8,2.2,3.5,3.7,3.5,5.6c0,1-0.4,2.8-2,4c-1,0.7-2.3,1-3.6,1
				C196.8,77.2,195.7,77.1,194.8,76.6z"/>
			<path fill="#D1D3D4" d="M198,77.5c-1.3,0-2.4-0.2-3.3-0.7c-0.5-0.2-0.5-0.5-0.5-1.1c0-1,0.1-1.8,0.1-2.3l0-0.3
				c0-0.2,0.1-0.6,0.4-0.6c0.4,0,0.4,0.4,0.4,0.5c0,0.2,0,0.5,0.1,0.8c0.4,2,2.5,2.3,3.3,2.3c2.1,0,3.2-1.5,3.2-2.9
				c0-1.5-0.6-2.4-2.7-4.1l-1.1-0.9c-2.7-2.2-3.2-3.7-3.2-5.4c0-2.7,2.1-4.6,5.2-4.6c0.9,0,1.6,0.1,2.3,0.2c0.5,0.1,0.6,0.1,0.8,0.1
				c0.4,0,0.5,0.3,0.5,0.4c0,0,0,0.1,0,0.2c0,0.3-0.1,1.1-0.1,2.4c0,0.3,0,0.8-0.4,0.8c-0.4,0-0.4-0.4-0.4-0.5
				c0-0.3-0.2-0.9-0.3-1.1c-0.2-0.3-0.8-1.1-2.8-1.1c-1.6,0-2.7,1-2.7,2.5c0,1.3,0.6,2.1,2.8,3.8l0.7,0.5c3,2.4,3.6,3.9,3.6,5.8
				c0,1.3-0.6,3.1-2.1,4.2C200.8,77.1,199.5,77.5,198,77.5z M194.7,74c0,0.5-0.1,1-0.1,1.7c0,0.6,0,0.6,0.2,0.7
				c0.9,0.4,1.9,0.6,3.1,0.6c1.4,0,2.6-0.3,3.5-1c1.8-1.3,1.9-3.4,1.9-3.8c0-1.7-0.6-3.2-3.4-5.4l-0.7-0.5c-2.4-1.9-3-2.8-3-4.2
				c0-1.8,1.3-3,3.2-3c2.2,0,3,1,3.2,1.4c0.1,0.1,0.1,0.4,0.2,0.6c0-1,0.1-1.6,0.1-1.9c0,0,0,0,0-0.1c-0.2,0-0.4,0-0.9-0.1
				c-0.7-0.2-1.4-0.2-2.2-0.2c-2.9,0-4.7,1.6-4.7,4.1c0,1.5,0.5,3,3,5l1.1,0.9c2,1.6,2.9,2.7,2.9,4.5c0,1.7-1.3,3.4-3.7,3.4
				C196.5,76.6,195,75.6,194.7,74z"/>
		</g>
	</g>
	<g>
		<g>
			<path fill="#939598" d="M55.5,100h-0.6v-3.9h-5.5v3.9h-0.6v-8.2h0.6v3.8h5.5v-3.8h0.6V100z"/>
		</g>
		<g>
			<path fill="#939598" d="M62.3,100.1c-2.4,0-4.3-1.8-4.3-4.2c0-2.4,1.9-4.2,4.3-4.2c2.4,0,4.3,1.8,4.3,4.2
				C66.7,98.3,64.8,100.1,62.3,100.1z M62.4,92.4c-2.1,0-3.6,1.6-3.6,3.6c0,2,1.6,3.6,3.6,3.6c2.1,0,3.6-1.6,3.6-3.6
				C66,93.9,64.4,92.4,62.4,92.4z"/>
		</g>
		<g>
			<path fill="#939598" d="M74.5,92.4h-3.1v7.7h-0.6v-7.7h-3.1v-0.5h6.8V92.4z"/>
		</g>
		<g>
			<path fill="#939598" d="M80.9,92.4h-3.8v3.3h3.7v0.5h-3.7v3.3H81v0.5h-4.6v-8.2h4.5V92.4z"/>
		</g>
		<g>
			<path fill="#939598" d="M83.8,99.5h4.1v0.5h-4.7v-8.2h0.6V99.5z"/>
		</g>
		<g>
			<path fill="#939598" d="M96,97.4c-0.8,0-1.5-0.7-1.5-1.5c0-0.8,0.7-1.4,1.5-1.4s1.5,0.6,1.5,1.5S96.8,97.4,96,97.4z"/>
		</g>
		<g>
			<path fill="#939598" d="M112,93.2c-0.6-0.4-0.8-0.5-1.5-0.6c-0.5-0.1-0.9-0.2-1.4-0.2c-2.1,0-3.6,1.5-3.6,3.6
				c0,2,1.5,3.6,3.6,3.6c0.8,0,1.6-0.2,2.4-0.5v-2.2h-1.7v-0.5h2.4v3.1c-0.6,0.3-0.9,0.4-1.5,0.5c-0.5,0.1-1.1,0.2-1.5,0.2
				c-2.4,0-4.3-1.9-4.3-4.2c0-2.4,1.9-4.2,4.4-4.2c0.9,0,1.7,0.2,2.8,0.7V93.2z"/>
		</g>
		<g>
			<path fill="#939598" d="M121.8,100h-0.7l-1.3-2.8h-4l-1.3,2.8h-0.7l3.8-8.2h0.4L121.8,100z M117.8,92.8l-1.8,3.8h3.5L117.8,92.8z
				"/>
		</g>
		<g>
			<path fill="#939598" d="M131.2,100h-0.5l-6.2-7.2v7.2h-0.6v-8.2h0.6l6.2,7.1v-7.1h0.6V100z"/>
		</g>
		<g>
			<path fill="#939598" d="M136.6,91.8c1.7,0,2.1,0.1,2.9,0.6c1.2,0.7,1.9,2,1.9,3.6c0,1.5-0.7,2.8-1.9,3.5
				c-0.8,0.5-1.2,0.6-2.9,0.6h-2.5v-8.2H136.6z M134.8,99.5h1.9c1.3,0,1.8-0.1,2.5-0.6c1-0.6,1.6-1.7,1.6-3c0-1.3-0.6-2.4-1.6-3
				c-0.7-0.5-1.2-0.6-2.5-0.6h-1.9V99.5z"/>
		</g>
		<g>
			<path fill="#939598" d="M148.4,92.4h-3.8v3.3h3.7v0.5h-3.7v3.3h3.9v0.5H144v-8.2h4.5V92.4z"/>
		</g>
		<g>
			<path fill="#939598" d="M152.3,91.8c1.1,0,1.5,0,2,0.2c0.7,0.3,1.2,1,1.2,1.9c0,0.9-0.5,1.6-1.6,2c0.3,0.2,0.6,0.6,1.1,1.2
				l0.6,0.9l0.7,1.1l0.2,0.4c0.1,0.2,0.2,0.3,0.4,0.6h-0.8l-1.6-2.5c-0.3-0.5-0.8-1-1-1.2c-0.3-0.2-0.5-0.3-1.4-0.3h-0.9v3.9h-0.6
				v-8.2H152.3z M151.4,95.6h0.9c1,0,1.4-0.1,1.8-0.3c0.4-0.2,0.7-0.8,0.7-1.3c0-0.6-0.3-1.1-0.8-1.3c-0.4-0.2-0.9-0.3-1.7-0.3h-1
				V95.6z"/>
		</g>
	</g>
	<g id="ncywg3.tif_1_">
		<g>
			<path fill="#939598" d="M78.9,36.1c-0.4,0.1-0.6,0.5-0.8,0.8c-0.4,0.4-0.6,0.8-1,1.1c-0.2,0.2-0.4,0.2-0.6-0.1
				c-0.1-0.2-0.3-0.3-0.5-0.4c-0.1-0.2-0.3-0.1-0.4,0.1c-0.3,0.6-0.7,1-1.3,1.3c-0.4,0.2-0.7,0.1-0.8-0.4c0-0.3-0.2-0.5-0.2-0.9
				c-0.3,0.3-0.6,0.4-0.8,0.7c-0.4,0.5-0.9,0.7-1.4,1c-0.2,0.1-0.5,0.1-0.6-0.1c-0.2-0.2-0.1-0.5,0.1-0.6c0.1-0.1,0.2-0.2,0.2-0.4
				c0.1-0.5,0.5-0.9,0.8-1.3c0.2-0.3,0.3-0.5,0.5-0.8c0.5-0.9,1.1-1.7,1.7-2.4c0.6-0.7,1.2-1.4,1.9-2.1c0.8-0.7,1.6-1.5,2.4-2.3
				c0.6-0.6,1.3-1.2,1.9-1.9c0.4-0.4,0.9-0.8,1.3-1.1c0.3-0.3,0.6-0.6,0.9-0.9c0.4-0.3,0.8-0.6,1.2-0.8c0.8-0.5,1.5-1.1,2.2-1.8
				c0.5-0.5,1.1-0.9,1.7-1.2c0.6-0.3,1.3-0.5,2-0.7c0.6-0.2,1.1-0.1,1.7-0.3c0.4-0.1,0.8,0,1.2-0.1c0.5-0.1,1,0.1,1.5-0.1
				c0,0,0.1,0,0.1,0c0.6,0.2,1.2,0,1.8,0.1c0.5,0.1,1.1,0,1.6,0c0.7,0,1.3-0.3,1.9-0.3c0.1,0,0.2,0,0.3-0.1c0.1-0.1,0.4-0.1,0.3-0.4
				c0-0.3-0.3-0.2-0.4-0.3c-0.4-0.1-0.8-0.4-1.1-0.6c-0.9-0.7-1.9-1-3-1.1c-0.7,0-1.4-0.2-2-0.3c-0.4-0.1-0.5-0.4-0.2-0.7
				c0.3-0.3,0.6-0.5,1.2-0.4c1.1,0.1,2.2,0.3,3.2-0.6c0.6-0.5,1.4-0.5,2.1-0.7c0.6-0.2,1.1,0,1.7,0.2c0.9,0.2,1.9,0.4,2.8,0.7
				c0.5,0.1,1,0.1,1.5,0c0.7-0.1,1.4-0.4,2.1-0.8c0.8-0.5,1.4-1.2,2.2-1.8c0.2-0.2,0.3-0.5,0.5-0.7c0.6-0.9,1.1-1.9,1.3-3
				c0.1-0.5,0-1,0.1-1.5c0.1-0.9,0.6-1.4,1.4-1.8c0.5-0.2,1-0.3,1.4-0.5c0.6-0.2,1.2-0.3,1.8-0.6c0.4-0.2,0.9-0.2,1.4-0.4
				c0.3-0.1,0.6-0.2,0.9-0.2c0.8-0.2,1.6-0.4,2.4-0.6c0.8-0.2,1.6-0.4,2.4-0.6c0.9-0.3,1.9-0.5,2.8-0.7c0.8-0.2,1.6-0.5,2.4-0.8
				c0.7-0.2,1.4-0.5,2.1-0.7c0.5-0.1,0.9-0.3,1.4-0.5c0.5-0.2,1.1-0.4,1.6-0.6c0.2-0.1,0.5,0,0.7,0.2c0.2,0.1,0.2,0.3,0,0.5
				c-0.1,0.1-0.2,0.1-0.1,0.2c0.1,0.1,0.1,0,0.2,0c0.1,0,0.3-0.2,0.4,0c0.1,0.2,0,0.3-0.2,0.5c-0.3,0.2-0.3,0.5-0.5,0.8
				c-0.4,0.4-0.7,0.9-1.1,1.2c-0.2,0.2-0.1,0.4,0.1,0.4c0.2,0.1,0.4,0.1,0.4,0.3c0,0.3-0.2,0.3-0.3,0.4c-0.5,0.4-1,0.5-1.6,0.8
				c-0.1,0-0.2,0.1-0.2,0.2c-0.2,0.7-0.7,1.1-1.3,1.4c-0.5,0.2-0.8,0.8-1.3,1.1c-0.2,0.1-0.5,0.3-0.7,0.4c-0.1,0-0.2,0.1-0.2,0.2
				c-0.1,0.7-0.7,0.7-1.1,0.8c-0.4,0.1-0.8,0.3-1.2,0.4c-1.5,0.5-2.9,1.1-4.1,2.1c-0.5,0.4-0.9,1.3-0.7,1.9c0.1,0.2,0,0.3,0,0.5
				c-0.2,0.7-0.3,1.5-0.6,2.2c-0.2,0.5-0.4,1-0.7,1.4c0,0-0.1,0.1-0.1,0.1c-0.2,0.9-0.9,1.7-0.9,2.7c0,0.4,0.5,1.2,0.9,1.3
				c0.9,0.2,1.9,0.5,2.8,0.7c1.9,0.5,3.8,0.9,5.8,1.4c0.3,0.1,0.5,0.3,0.5,0.4c0,0.4,0.3,0.7,0.4,1.1c0.1,0.2,0.1,0.3,0.1,0.5
				c0,0.2-0.1,0.4,0,0.7c0.1,0.4-0.3,0.5-0.5,0.8c-0.5,0.6-1,1.1-1.2,1.9c-0.1,0.5-0.6,0.9-1.1,1.1c-0.5,0.2-0.9,0.5-1.4,0.6
				c-0.4,0.1-0.8,0.3-1.3,0.2c-0.4-0.1-0.9-0.2-1.3-0.3c-0.5-0.1-0.8-0.4-1.1-0.7c-0.4-0.3-0.7-0.6-1.1-0.9
				c-0.6-0.5-1.2-0.9-1.8-1.4c-0.6-0.6-1.3-1-2-1.6c-0.4-0.4-0.9-0.6-1.4-1c-0.2-0.1-0.4-0.2-0.7,0c-0.6,0.4-1.2,0.7-1.9,0.7
				c-0.1,0-0.2,0.1-0.4,0.2c-0.7,0.4-1.3,0.6-2.1,0.8c-0.2,0-0.3,0.2-0.5,0.2c-0.4,0.2-0.9,0.4-1.4,0.3c-0.2,0-0.3,0.1-0.5,0.2
				c-0.5,0.4-1.2,0.4-1.8,0.6c-0.6,0.1-1.3,0.2-1.9,0.1c-0.2,0-0.3,0.1-0.5,0.1c-0.6,0.2-1.2,0-1.8,0.1c-0.2,0-0.4,0.1-0.6,0.2
				c-0.9,0.1-1.8,0-2.7-0.1c-0.5-0.1-1.2-0.3-1.7,0c-0.1,0-0.2,0-0.3,0c-0.1,0-0.3-0.1-0.4-0.1c-0.5-0.1-0.8,0.5-1.3,0.4
				c-0.1,0.4-0.5,0.3-0.8,0.4c-0.2,0.1-0.5,0.1-0.8,0.1c-0.2,0-0.4,0.1-0.5,0.3c-0.1,0.3-0.4,0.4-0.7,0.5c0,0-0.1,0-0.1,0
				c-0.4-0.4-0.5,0.2-0.8,0.3c-0.4,0.2-0.9,0.1-1.1,0.5c-0.3,0.4-0.6,0.5-1,0.8c-0.3,0.2-0.6,0.1-0.8-0.1c-0.1-0.1-0.2-0.2-0.3-0.2
				c-0.2,0-0.2,0.2-0.2,0.3c-0.1,0.3-0.2,0.6-0.4,0.8c-0.3,0.3-0.6,0.2-0.8,0c-0.3-0.3-0.3-0.1-0.3,0.1c-0.2,0.6-0.5,1-1.1,1.3
				c-0.3,0.1-0.5,0.1-0.7-0.1c-0.3-0.3-0.5-0.1-0.6,0c-0.1,0.2-0.3,0.3-0.5,0.5c-0.2,0.3-0.5,0.5-0.9,0.3c-0.3-0.1-0.5,0-0.8,0.2
				c-0.5,0.4-0.9,0.8-1.4,1.2c-0.1,0.1-0.2,0.2-0.3,0.2C79.2,36.8,79,36.7,78.9,36.1z"/>
		</g>
	</g>
</g>
</svg>
